<?xml version="1.0" encoding="UTF-8" standalone="no"?>
<!DOCTYPE svg PUBLIC "-//W3C//DTD SVG 1.1//EN" "http://www.w3.org/Graphics/SVG/1.1/DTD/svg11.dtd">
<svg width="100%" height="100%" viewBox="0 0 1250 350" version="1.1" xmlns="http://www.w3.org/2000/svg" xmlns:xlink="http://www.w3.org/1999/xlink" xml:space="preserve" xmlns:serif="http://www.serif.com/" style="fill-rule:evenodd;clip-rule:evenodd;stroke-linejoin:round;stroke-miterlimit:1.41421;">
    <g transform="matrix(1,0,0,1,-3086,-1746)">
        <g id="HAMYLOGO" transform="matrix(0.846883,0,0,0.57947,472.428,733.698)">
            <rect x="3086.11" y="1746.94" width="1476" height="604" style="fill:none;"/>
            <clipPath id="_clip1">
                <rect x="3086.11" y="1746.94" width="1476" height="604"/>
            </clipPath>
            <g clip-path="url(#_clip1)">
                <g transform="matrix(1.1808,0,0,1.72571,-752.275,882.361)">
                    <path d="M4500.66,501L4500.66,851L3250.66,851L3250.66,501L4500.66,501ZM3350.66,551L3300.66,551L3300.66,801L3350.66,801L3350.66,701L3400.66,701L3400.66,651L3350.66,651L3350.66,551ZM3550.66,551L3500.66,551L3500.66,651L3450.66,651L3450.66,701L3500.66,701L3500.66,801L3550.66,801L3550.66,551ZM3850.66,801L3850.66,551L3600.66,551L3600.66,801L3650.66,801L3650.66,701L3800.66,701L3800.66,801L3850.66,801ZM4150.66,801L4150.66,551L4075.66,551L4025.66,651L3975.66,551L3900.66,551L3900.66,801L3950.66,801L3950.66,601L4000.66,701L4050.66,701L4100.66,601L4100.66,801L4150.66,801ZM4250.66,551L4200.66,551L4200.66,701L4300.66,701L4300.66,801L4350.66,801L4350.66,701L4450.66,701L4450.66,551L4400.66,551L4400.66,651L4250.66,651L4250.66,551ZM3800.66,601L3800.66,651L3650.66,651L3650.66,601L3800.66,601Z" style="fill:rgb(191,62,56);"/>
                </g>
            </g>
        </g>
    </g>
</svg>
